Bogen;Wie schätzen Sie Ihre IT-Kenntnisse ein?;Wie gut kennen Sie sich mit IT-Sicherheit aus?;Müssen Sie bei Ihrer Arbeit Ihr Passwort auf öffentlichen Rechnern oder auf fremden Rechnern eingeben?;Halten Sie diese Rechner fürr vertrauenswürdig?;Sehen Sie eine Gefahr, dass diese Rechner durch Schadsoftware/hardware manipuliert sein könnten?;Sehen Sie Ihr Passwort dadurch bedroht?;unsicherer;genauso sicher;sicherer;viel sicherer;Wie sehr fühlen Sie sich durch die Lösung bei Ihrer täglichen Arbeit gestört?;Wie zufrieden sind Sie insgesamt mit der implementierten Lösung?;Hat die zertifikatsbasierte Zwei-Faktor-Authentifizierung Ihr Verständnis für Sicherheitsrisiken beeinflusst?;In Anbetracht der Sicherheitsrisiken, halten Sie die Lösung einer Zwei-Faktor-Authentifizierung auf Basis von Zertifikaten für angemessen?;Smartcard;(SMS)-TAN;U2F;HOTP / TOTP;Haben Sie weitere Anmerkungen / Verbesserungsvorschläge?;Zeitstempel;Datensatz-Ursprung
1;4;3;1;2;1;1;0;0;0;1;1;4;2;1;4;3;4;3;Bitte endlich auf dem Camups die wichtigsten Dienste per SingleSignOn (Shibboleth) mit optionaler 2FA (Authenticator App) erreichbar machen.;23.12.2016 um 14:41:52;O
2;3;3;1;2;1;1;0;0;1;0;3;3;1;1;4;3;4;3; ;27.12.2016 um 11:33:22;O
3;4;3;1;1;2;2;0;1;0;0;4;1;2;2;2;2;2;2; ;28.12.2016 um 09:26:04;O
4;2;1;2;2;1;1;0;1;0;0;4;2;1;2;1;3;1;1; ;28.12.2016 um 16:40:01;O
5;3;3;1;2;1;1;0;0;0;1;2;4;2;1;4;3;4;4; ;29.12.2016 um 05:38:13;M
6;4;4;1;2;1;1;0;0;1;0;4;1;1;1;4;3;4;4;Ich sehe gerade bei unseren verwendeten Token einige Probleme. So ist es häufig nicht möglich ihn am Berater AMc zu nutzen, da es hier Treiberproblme gibt. Außerdem gibt es keine Möglichkeit einen anderen Token zu nutzen, da die Browser nur mit einem Token klar kommen.  Die Einführung eines 30 Minuten Time-Outs erschwert deutlich die Arbeit, da man ständig seinen Token aus der Tasche holen muß usw.  Für die Rechner an denen verschiedene Nutzer arbeiten ist das verständlich. Aber am eigenen Rechner nervt es nur noch und führt eher dazu, daß man dann doch wieder alels im Browser speichert.;30.01.2017 um 11:04:39;O
